Booth_Multiplier.vcd
$date
	Fri Nov 24 11:37:38 2023
$end
$version
	Icarus Verilog
$end
$timescale
	1s
$end
$scope module booth_tb $end
$var wire 1 ! valid $end
$var wire 16 " Z [15:0] $end
$var reg 8 # X [7:0] $end
$var reg 8 $ Y [7:0] $end
$var reg 1 % clock $end
$var reg 1 & reset $end
$var reg 1 ' start $end
$scope module inst $end
$var wire 8 ( X [7:0] $end
$var wire 8 ) Y [7:0] $end
$var wire 1 % clock $end
$var wire 1 & reset $end
$var wire 1 ' start $end
$var reg 16 * Z [15:0] $end
$var reg 16 + Z_temp [15:0] $end
$var reg 3 , count [2:0] $end
$var reg 16 - next_Z [15:0] $end
$var reg 3 . next_count [2:0] $end
$var reg 1 / next_state $end
$var reg 3 0 next_temp [2:0] $end
$var reg 1 1 next_valid $end
$var reg 1 2 present_state $end
$var reg 3 3 temp [2:0] $end
$var reg 1 ! valid $end
$upscope $end
$upscope $end
$enddefinitions $end
#0
$dumpvars
b0 3
02
01
b0 0
0/
b0 .
b0 -
b0 ,
bx +
b0 *
b10111010 )
b11001000 (
0'
0&
1%
b10111010 $
b11001000 #
b0 "
0!
$end
#5
0%
#10
1%
1&
#15
0%
#20
b1 .
b11001000 +
12
b11001000 "
b11001000 *
b1100100 -
1/
1%
1'
#25
0%
#30
b110010 -
b10 .
b1100100 +
b1 ,
b1100100 "
b1100100 *
1%
0'
#35
0%
#40
b11001 -
b11 .
b10 0
b110010 +
b10 ,
b110010 "
b110010 *
1%
#45
0%
#50
b10001100001100 -
b100 .
b1 0
b100011000011001 +
b11 ,
b10 3
b11001 "
b11001 *
1%
#55
0%
#60
b1110111010000110 -
b101 .
b0 0
b1101110100001100 +
b100 ,
b1 3
b10001100001100 "
b10001100001100 *
1%
#65
0%
#70
b1111011101000011 -
b110 .
b10 0
b1110111010000110 +
b101 ,
b0 3
b1110111010000110 "
b1110111010000110 *
1%
#75
0%
#80
b1111010100001 -
b111 .
b11 0
b11110101000011 +
b110 ,
b10 3
b1111011101000011 "
b1111011101000011 *
1%
#85
0%
#90
0/
11
b111101010000 -
b0 .
b0x1 0
b1111010100001 +
b111 ,
b11 3
b1111010100001 "
b1111010100001 *
1%
#95
0%
#100
b0 -
b0 0
01
b0 ,
b0x1 3
02
1!
b111101010000 "
b111101010000 *
1%
#105
0%
#110
b0 3
0!
b0 "
b0 *
1%
#115
0%
#120
1%
#125
0%
#130
1%
#135
0%
#140
1%
0&
